{
    "name": "lolitafashion_4000",
    "images": ["https://files.catbox.moe/wca6ki.png","https://files.catbox.moe/5eap5v.png"],
    "intro": "身着Lolita的真人风格模型<br><br>目前问题: 就算喂的都是带面部的图像，生成的人脸依旧古神<br><br>by Zhuym @Zhuym_Daily"
}
